Get the names of the columns and data type of the data product — mrp_colnames • mregions2
…
The actual description of each column is available only to the Maritime Boundaries products.
See https://marineregions.org/eezattribute.php

    See also

    mrp_list to describe the list of products, mrp_col_unique() to get the unique values of a the
columns of a data product, useful to write queries that can be passed to mrp_get() or mrp_view() via the
arguments cql_filter or filter.

    Examples

# \donttest{
mrp_colnames("eez")
#> # A tibble: 31 × 3
#>    layer colname    type  
#>  * <chr> <chr>      <chr> 
#>  1 eez   mrgid      int   
#>  2 eez   geoname    string
#>  3 eez   mrgid_ter1 int   
#>  4 eez   pol_type   string
#>  5 eez   mrgid_sov1 int   
#>  6 eez   territory1 string
#>  7 eez   iso_ter1   string
#>  8 eez   sovereign1 string
#>  9 eez   mrgid_ter2 int   
#> 10 eez   mrgid_sov2 int   
#> # ℹ 21 more rows
…
